\relax 
\@writefile{toc}{\contentsline {section}{\numberline {1}Part 1}{1}}
\@writefile{lof}{\contentsline {figure}{\numberline {1}{\ignorespaces Trace for the execution of the serial part }}{1}}
\@writefile{toc}{\contentsline {section}{\numberline {2}Part 2}{1}}
\@writefile{lof}{\contentsline {figure}{\numberline {2}{\ignorespaces Trace for the execution of the bulk scheduling }}{3}}
\@writefile{toc}{\contentsline {section}{\numberline {3}Problem 3}{4}}
\@writefile{lof}{\contentsline {figure}{\numberline {3}{\ignorespaces Trace for the execution of the collective scheduling }}{4}}
\@writefile{toc}{\contentsline {subsection}{\numberline {3.1}Time taken for different sceduling types with 16 processes}{6}}
