\relax 
\@writefile{toc}{\contentsline {section}{\numberline {1}Part 1}{1}}
\@writefile{toc}{\contentsline {section}{\numberline {2}Part 2}{1}}
\@writefile{toc}{\contentsline {section}{\numberline {3}Problem 3}{3}}
