\relax 
\@writefile{toc}{\contentsline {section}{\numberline {1}Step 1}{1}}
\@writefile{toc}{\contentsline {section}{\numberline {2}Step 2}{3}}
\@writefile{toc}{\contentsline {subsection}{\numberline {2.1}Time taken for different thread numbers}{4}}
\@writefile{lof}{\contentsline {figure}{\numberline {1}{\ignorespaces Mandelbrot set for 5000x5000 pixels and 10000 static iterations for per pixel }}{5}}
