\relax 
\@writefile{toc}{\contentsline {section}{\numberline {1}Problem 1}{1}}
\@writefile{toc}{\contentsline {section}{\numberline {2}Problem2}{1}}
\@writefile{toc}{\contentsline {section}{\numberline {3}Problem 3}{1}}
\@writefile{toc}{\contentsline {section}{\numberline {4}Problem 4}{1}}
\@writefile{toc}{\contentsline {section}{\numberline {5}Problem 5}{2}}
\@writefile{toc}{\contentsline {section}{\numberline {6}Problem 6}{2}}
\@writefile{toc}{\contentsline {section}{\numberline {7}Problem 7}{3}}
\@writefile{toc}{\contentsline {section}{\numberline {8}Problem 8}{3}}
\@writefile{toc}{\contentsline {section}{\numberline {9}Problem 9}{3}}
\@writefile{toc}{\contentsline {section}{\numberline {10}Problem 10}{3}}
\@writefile{toc}{\contentsline {section}{\numberline {11}Problem 12}{4}}
\@writefile{toc}{\contentsline {section}{\numberline {12}Problem 13}{4}}
