\relax 
\@writefile{toc}{\contentsline {section}{\numberline {1}Problem description}{1}}
\@writefile{toc}{\contentsline {section}{\numberline {2}Multigrid formulation}{2}}
\@writefile{toc}{\contentsline {section}{\numberline {3}Parallel implementation}{2}}
