\relax 
\@writefile{toc}{\contentsline {section}{\numberline {1}Problem 1}{1}}
\@writefile{toc}{\contentsline {section}{\numberline {2}Problem 2}{2}}
\@writefile{toc}{\contentsline {subsection}{\numberline {2.1}Time taken for diffferent chunk sizes}{4}}
\@writefile{toc}{\contentsline {section}{\numberline {3}Problem 3}{4}}
\@writefile{toc}{\contentsline {subsection}{\numberline {3.1}Time taken for diffferent chunk sizes}{5}}
\@writefile{toc}{\contentsline {section}{\numberline {4}Problem4}{5}}
