TACC: Starting up job 4999891
TACC: Setting up parallel environment for MVAPICH2+mpispawn.
TACC: Starting parallel tasks...
Number of tasks= 32, My rank = 3 Running on c557-704.stampede.tacc.utexas.edu
Number of tasks= 32, My rank = 0 Running on c557-704.stampede.tacc.utexas.edu
Number of tasks= 32, My rank = 5 Running on c557-704.stampede.tacc.utexas.edu
Number of tasks= 32, My rank = 9 Running on c557-704.stampede.tacc.utexas.edu
Number of tasks= 32, My rank = 11 Running on c557-704.stampede.tacc.utexas.edu
Number of tasks= 32, My rank = 8 Running on c557-704.stampede.tacc.utexas.edu
Number of tasks= 32, My rank = 4 Running on c557-704.stampede.tacc.utexas.edu
Number of tasks= 32, My rank = 10 Running on c557-704.stampede.tacc.utexas.edu
Number of tasks= 32, My rank = 15 Running on c557-704.stampede.tacc.utexas.edu
Number of tasks= 32, My rank = 12 Running on c557-704.stampede.tacc.utexas.edu
Number of tasks= 32, My rank = 7 Running on c557-704.stampede.tacc.utexas.edu
Number of tasks= 32, My rank = 6 Running on c557-704.stampede.tacc.utexas.edu
Number of tasks= 32, My rank = 2 Running on c557-704.stampede.tacc.utexas.edu
Number of tasks= 32, My rank = 14 Running on c557-704.stampede.tacc.utexas.edu
Number of tasks= 32, My rank = 1 Running on c557-704.stampede.tacc.utexas.edu
Number of tasks= 32, My rank = 13 Running on c557-704.stampede.tacc.utexas.edu
Number of tasks= 32, My rank = 21 Running on c557-801.stampede.tacc.utexas.edu
Number of tasks= 32, My rank = 24 Running on c557-801.stampede.tacc.utexas.edu
Number of tasks= 32, My rank = 28 Running on c557-801.stampede.tacc.utexas.edu
Number of tasks= 32, My rank = 20 Running on c557-801.stampede.tacc.utexas.edu
Number of tasks= 32, My rank = 29 Running on c557-801.stampede.tacc.utexas.edu
Number of tasks= 32, My rank = 27 Running on c557-801.stampede.tacc.utexas.edu
Number of tasks= 32, My rank = 25 Running on c557-801.stampede.tacc.utexas.edu
Number of tasks= 32, My rank = 30 Running on c557-801.stampede.tacc.utexas.edu
Number of tasks= 32, My rank = 17 Running on c557-801.stampede.tacc.utexas.edu
Number of tasks= 32, My rank = 19 Running on c557-801.stampede.tacc.utexas.edu
Number of tasks= 32, My rank = 18 Running on c557-801.stampede.tacc.utexas.edu
Number of tasks= 32, My rank = 16 Running on c557-801.stampede.tacc.utexas.edu
Number of tasks= 32, My rank = 22 Running on c557-801.stampede.tacc.utexas.edu
Number of tasks= 32, My rank = 31 Running on c557-801.stampede.tacc.utexas.edu
Number of tasks= 32, My rank = 26 Running on c557-801.stampede.tacc.utexas.edu
Number of tasks= 32, My rank = 23 Running on c557-801.stampede.tacc.utexas.edu
On rank 0 time taken 1.000127
On rank 1 time taken 2.000117
On rank 2 time taken 3.000075
On rank 3 time taken 4.000077
On rank 4 time taken 5.000118
On rank 5 time taken 6.000118
On rank 6 time taken 7.000106
On rank 7 time taken 8.000118
On rank 8 time taken 9.000126
On rank 9 time taken 10.000066
On rank 10 time taken 11.000068
On rank 11 time taken 12.000069
On rank 12 time taken 13.000067
On rank 13 time taken 14.000067
On rank 14 time taken 15.000068
On rank 15 time taken 16.000062
On rank 16 time taken 17.000105
On rank 17 time taken 18.000074
On rank 18 time taken 19.000097
On rank 19 time taken 20.000097
On rank 20 time taken 21.000097
On rank 21 time taken 22.000099
On rank 22 time taken 23.000062
On rank 23 time taken 24.000060
On rank 24 time taken 25.000094
On rank 25 time taken 26.000070
On rank 26 time taken 27.000070
On rank 27 time taken 28.000060
On rank 28 time taken 29.000070
On rank 29 time taken 30.000089
On rank 30 time taken 31.000070
On rank 31 time taken 32.000069
 
TACC: Shutdown complete. Exiting.
